(export (version D)
  (design
    (source C:\Users\kaiku\OneDrive\Tiedostot\Kuosch\bourns_breakout\bourns_breakout.sch)
    (date "12/16/21 16:57:21")
    (tool "Eeschema (5.1.4)-1")
    (sheet (number 1) (name /) (tstamps /)
      (title_block
        (title)
        (company)
        (rev)
        (date)
        (source bourns_breakout.sch)
        (comment (number 1) (value ""))
        (comment (number 2) (value ""))
        (comment (number 3) (value ""))
        (comment (number 4) (value "")))))
  (components
    (comp (ref RV1)
      (value R_POT_Dual)
      (footprint Kuosch:PTD902-2015K-A104)
      (datasheet ~)
      (libsource (lib Device) (part R_POT_Dual) (description "Dual potentiometer"))
      (sheetpath (names /) (tstamps /))
      (tstamp 61BB6D27))
    (comp (ref J1)
      (value Conn_01x02_Male)
      (footprint Connector_PinHeader_2.54mm:PinHeader_1x02_P2.54mm_Vertical)
      (datasheet ~)
      (libsource (lib Connector) (part Conn_01x02_Male) (description "Generic connector, single row, 01x02, script generated (kicad-library-utils/schlib/autogen/connector/)"))
      (sheetpath (names /) (tstamps /))
      (tstamp 61BB876F))
    (comp (ref J2)
      (value Conn_01x02_Male)
      (footprint Connector_PinHeader_2.54mm:PinHeader_1x02_P2.54mm_Vertical)
      (datasheet ~)
      (libsource (lib Connector) (part Conn_01x02_Male) (description "Generic connector, single row, 01x02, script generated (kicad-library-utils/schlib/autogen/connector/)"))
      (sheetpath (names /) (tstamps /))
      (tstamp 61BB8C7E))
    (comp (ref J3)
      (value Conn_01x02_Male)
      (footprint Connector_PinHeader_2.54mm:PinHeader_1x02_P2.54mm_Vertical)
      (datasheet ~)
      (libsource (lib Connector) (part Conn_01x02_Male) (description "Generic connector, single row, 01x02, script generated (kicad-library-utils/schlib/autogen/connector/)"))
      (sheetpath (names /) (tstamps /))
      (tstamp 61BB93E8))
    (comp (ref J4)
      (value Conn_01x02_Male)
      (footprint Connector_PinHeader_2.54mm:PinHeader_1x02_P2.54mm_Vertical)
      (datasheet ~)
      (libsource (lib Connector) (part Conn_01x02_Male) (description "Generic connector, single row, 01x02, script generated (kicad-library-utils/schlib/autogen/connector/)"))
      (sheetpath (names /) (tstamps /))
      (tstamp 61BB986C)))
  (libparts
    (libpart (lib Connector) (part Conn_01x02_Male)
      (description "Generic connector, single row, 01x02, script generated (kicad-library-utils/schlib/autogen/connector/)")
      (docs ~)
      (footprints
        (fp Connector*:*_1x??_*))
      (fields
        (field (name Reference) J)
        (field (name Value) Conn_01x02_Male))
      (pins
        (pin (num 1) (name Pin_1) (type passive))
        (pin (num 2) (name Pin_2) (type passive))))
    (libpart (lib Device) (part R_POT_Dual)
      (description "Dual potentiometer")
      (docs ~)
      (footprints
        (fp Potentiometer*))
      (fields
        (field (name Reference) RV)
        (field (name Value) R_POT_Dual))
      (pins
        (pin (num 1) (name 1) (type passive))
        (pin (num 2) (name 2) (type passive))
        (pin (num 3) (name 3) (type passive))
        (pin (num 4) (name 4) (type passive))
        (pin (num 5) (name 5) (type passive))
        (pin (num 6) (name 6) (type passive)))))
  (libraries
    (library (logical Connector)
      (uri "C:\\Program Files\\KiCad\\share\\kicad\\library/Connector.lib"))
    (library (logical Device)
      (uri "C:\\Program Files\\KiCad\\share\\kicad\\library/Device.lib")))
  (nets
    (net (code 1) (name GND)
      (node (ref RV1) (pin 6))
      (node (ref RV1) (pin 3))
      (node (ref J1) (pin 2))
      (node (ref J2) (pin 2))
      (node (ref J3) (pin 2))
      (node (ref J4) (pin 2)))
    (net (code 2) (name /In2)
      (node (ref J2) (pin 1))
      (node (ref RV1) (pin 4)))
    (net (code 3) (name /Out1)
      (node (ref J3) (pin 1))
      (node (ref RV1) (pin 2)))
    (net (code 4) (name /Out2)
      (node (ref RV1) (pin 5))
      (node (ref J4) (pin 1)))
    (net (code 5) (name /In1)
      (node (ref RV1) (pin 1))
      (node (ref J1) (pin 1)))))