G04 #@! TF.GenerationSoftware,KiCad,Pcbnew,(5.1.4)-1*
G04 #@! TF.CreationDate,2021-12-16T17:19:03+00:00*
G04 #@! TF.ProjectId,bourns_breakout,626f7572-6e73-45f6-9272-65616b6f7574,rev?*
G04 #@! TF.SameCoordinates,Original*
G04 #@! TF.FileFunction,Legend,Bot*
G04 #@! TF.FilePolarity,Positive*
%FSLAX46Y46*%
G04 Gerber Fmt 4.6, Leading zero omitted, Abs format (unit mm)*
G04 Created by KiCad (PCBNEW (5.1.4)-1) date 2021-12-16 17:19:03*
%MOMM*%
%LPD*%
G04 APERTURE LIST*
%ADD10C,0.010000*%
G04 APERTURE END LIST*
D10*
G36*
X159093143Y-112902971D02*
G01*
X159022476Y-112965571D01*
X159042906Y-113142268D01*
X159068125Y-113252977D01*
X159133909Y-113560894D01*
X159142803Y-113707398D01*
X159088820Y-113718171D01*
X158979885Y-113631553D01*
X158743648Y-113482185D01*
X158569429Y-113497937D01*
X158483318Y-113672640D01*
X158478549Y-113750076D01*
X158448714Y-113983943D01*
X158338956Y-114131499D01*
X158118894Y-114206155D01*
X157758150Y-114221321D01*
X157444877Y-114206361D01*
X157093571Y-114186277D01*
X156923624Y-114185440D01*
X156923346Y-114205047D01*
X157072824Y-114244434D01*
X157412278Y-114298966D01*
X157812699Y-114333126D01*
X157966169Y-114338039D01*
X158341864Y-114304176D01*
X158564606Y-114177595D01*
X158662052Y-113936106D01*
X158672442Y-113771363D01*
X158712637Y-113624769D01*
X158818469Y-113635084D01*
X158967812Y-113786323D01*
X159138537Y-114062503D01*
X159174684Y-114134159D01*
X159394996Y-114585993D01*
X159458508Y-114295153D01*
X159504623Y-114124707D01*
X159532313Y-114097237D01*
X159533491Y-114104594D01*
X159619551Y-114216952D01*
X159809359Y-114358241D01*
X160028506Y-114480878D01*
X160202581Y-114537279D01*
X160210486Y-114537519D01*
X160351993Y-114470686D01*
X160437895Y-114388735D01*
X160609455Y-114189158D01*
X160683164Y-114105740D01*
X160734464Y-113994205D01*
X160661307Y-113864304D01*
X160506069Y-113721318D01*
X160276570Y-113574561D01*
X160034634Y-113486373D01*
X159837155Y-113469117D01*
X159741028Y-113535155D01*
X159738854Y-113554610D01*
X159819225Y-113602125D01*
X159972639Y-113593422D01*
X160195355Y-113615785D01*
X160317323Y-113755947D01*
X160386752Y-114019095D01*
X160320680Y-114232115D01*
X160140665Y-114339631D01*
X160088534Y-114343626D01*
X159860172Y-114272554D01*
X159642481Y-114087819D01*
X159455932Y-113832146D01*
X159320996Y-113548261D01*
X159258144Y-113278888D01*
X159287848Y-113066751D01*
X159423778Y-112956256D01*
X159459542Y-112924235D01*
X159328667Y-112902628D01*
X159288568Y-112900674D01*
X159093143Y-112902971D01*
X159093143Y-112902971D01*
G37*
X159093143Y-112902971D02*
X159022476Y-112965571D01*
X159042906Y-113142268D01*
X159068125Y-113252977D01*
X159133909Y-113560894D01*
X159142803Y-113707398D01*
X159088820Y-113718171D01*
X158979885Y-113631553D01*
X158743648Y-113482185D01*
X158569429Y-113497937D01*
X158483318Y-113672640D01*
X158478549Y-113750076D01*
X158448714Y-113983943D01*
X158338956Y-114131499D01*
X158118894Y-114206155D01*
X157758150Y-114221321D01*
X157444877Y-114206361D01*
X157093571Y-114186277D01*
X156923624Y-114185440D01*
X156923346Y-114205047D01*
X157072824Y-114244434D01*
X157412278Y-114298966D01*
X157812699Y-114333126D01*
X157966169Y-114338039D01*
X158341864Y-114304176D01*
X158564606Y-114177595D01*
X158662052Y-113936106D01*
X158672442Y-113771363D01*
X158712637Y-113624769D01*
X158818469Y-113635084D01*
X158967812Y-113786323D01*
X159138537Y-114062503D01*
X159174684Y-114134159D01*
X159394996Y-114585993D01*
X159458508Y-114295153D01*
X159504623Y-114124707D01*
X159532313Y-114097237D01*
X159533491Y-114104594D01*
X159619551Y-114216952D01*
X159809359Y-114358241D01*
X160028506Y-114480878D01*
X160202581Y-114537279D01*
X160210486Y-114537519D01*
X160351993Y-114470686D01*
X160437895Y-114388735D01*
X160609455Y-114189158D01*
X160683164Y-114105740D01*
X160734464Y-113994205D01*
X160661307Y-113864304D01*
X160506069Y-113721318D01*
X160276570Y-113574561D01*
X160034634Y-113486373D01*
X159837155Y-113469117D01*
X159741028Y-113535155D01*
X159738854Y-113554610D01*
X159819225Y-113602125D01*
X159972639Y-113593422D01*
X160195355Y-113615785D01*
X160317323Y-113755947D01*
X160386752Y-114019095D01*
X160320680Y-114232115D01*
X160140665Y-114339631D01*
X160088534Y-114343626D01*
X159860172Y-114272554D01*
X159642481Y-114087819D01*
X159455932Y-113832146D01*
X159320996Y-113548261D01*
X159258144Y-113278888D01*
X159287848Y-113066751D01*
X159423778Y-112956256D01*
X159459542Y-112924235D01*
X159328667Y-112902628D01*
X159288568Y-112900674D01*
X159093143Y-112902971D01*
G36*
X165097779Y-113406492D02*
G01*
X164787563Y-113185599D01*
X164552852Y-112992729D01*
X164379715Y-112806219D01*
X164363025Y-112781647D01*
X164221974Y-112634847D01*
X164126603Y-112598588D01*
X164010427Y-112642246D01*
X164060630Y-112767619D01*
X164271910Y-112966309D01*
X164437795Y-113091600D01*
X164871086Y-113402766D01*
X164704398Y-113685807D01*
X164535792Y-113932646D01*
X164371153Y-114119984D01*
X164264050Y-114198255D01*
X164202410Y-114158162D01*
X164156583Y-113967695D01*
X164140632Y-113871114D01*
X164081745Y-113624266D01*
X164010556Y-113483577D01*
X163986173Y-113471107D01*
X163943140Y-113557441D01*
X163945818Y-113783590D01*
X163961098Y-113907367D01*
X163984873Y-114203346D01*
X163945866Y-114337447D01*
X163925601Y-114343626D01*
X163793642Y-114268069D01*
X163622650Y-114083136D01*
X163463119Y-113851437D01*
X163371813Y-113657006D01*
X163284723Y-113481503D01*
X163208774Y-113474277D01*
X163166705Y-113610061D01*
X163181257Y-113863586D01*
X163181985Y-113867937D01*
X163214125Y-114117488D01*
X163188129Y-114224231D01*
X163090791Y-114233978D01*
X163077168Y-114231487D01*
X162918378Y-114133332D01*
X162550565Y-114133332D01*
X162485674Y-114278995D01*
X162301248Y-114347815D01*
X162095315Y-114274317D01*
X161949354Y-114097679D01*
X161887293Y-113887187D01*
X161952866Y-113737698D01*
X161978803Y-113710221D01*
X162105660Y-113621336D01*
X162243814Y-113659257D01*
X162335309Y-113719299D01*
X162503331Y-113913147D01*
X162550565Y-114133332D01*
X162918378Y-114133332D01*
X162910588Y-114128517D01*
X162752042Y-113928261D01*
X162549539Y-113684359D01*
X162317584Y-113514418D01*
X162108018Y-113425470D01*
X161972889Y-113441923D01*
X161873691Y-113517760D01*
X161619297Y-113647920D01*
X161355612Y-113632677D01*
X161193939Y-113520648D01*
X161053686Y-113426986D01*
X160979728Y-113434643D01*
X160945372Y-113538342D01*
X160986958Y-113594631D01*
X161025755Y-113743360D01*
X160932413Y-113960668D01*
X160839705Y-114242963D01*
X160889919Y-114473656D01*
X161054743Y-114610128D01*
X161305868Y-114609758D01*
X161352995Y-114593835D01*
X161444420Y-114534677D01*
X161420299Y-114459024D01*
X161290000Y-114459024D01*
X161233080Y-114522521D01*
X161117129Y-114482957D01*
X161024360Y-114370104D01*
X161021355Y-114361738D01*
X161051643Y-114288744D01*
X161136479Y-114305459D01*
X161269824Y-114404522D01*
X161290000Y-114459024D01*
X161420299Y-114459024D01*
X161413460Y-114437578D01*
X161286416Y-114291339D01*
X161142300Y-114102441D01*
X161142638Y-113975058D01*
X161173434Y-113936680D01*
X161403492Y-113809625D01*
X161619234Y-113860532D01*
X161766453Y-114070708D01*
X161925322Y-114311200D01*
X162162273Y-114450280D01*
X162416529Y-114471216D01*
X162627311Y-114357278D01*
X162659159Y-114316452D01*
X162784980Y-114284163D01*
X162919389Y-114333617D01*
X163160138Y-114429840D01*
X163302519Y-114385416D01*
X163379470Y-114230549D01*
X163446129Y-114020526D01*
X163623135Y-114254786D01*
X163727412Y-114434919D01*
X163704137Y-114559879D01*
X163533082Y-114646970D01*
X163194016Y-114713490D01*
X163066632Y-114730733D01*
X162768626Y-114770287D01*
X162653709Y-114792148D01*
X162712457Y-114801716D01*
X162935446Y-114804393D01*
X162938091Y-114804402D01*
X163250743Y-114794825D01*
X163506548Y-114769091D01*
X163562983Y-114757877D01*
X163867095Y-114626257D01*
X164234382Y-114387878D01*
X164603922Y-114084957D01*
X164774550Y-113918254D01*
X165011475Y-113709791D01*
X165165885Y-113674216D01*
X165246367Y-113813257D01*
X165263324Y-114016679D01*
X165312453Y-114204801D01*
X165422493Y-114354512D01*
X165541462Y-114405098D01*
X165578777Y-114385129D01*
X165583247Y-114273055D01*
X165549265Y-114026642D01*
X165487134Y-113699213D01*
X165407155Y-113344094D01*
X165319630Y-113014609D01*
X165303869Y-112962138D01*
X165315707Y-112818491D01*
X165391825Y-112792481D01*
X165574575Y-112723895D01*
X165631979Y-112671298D01*
X165654210Y-112591506D01*
X165529575Y-112553492D01*
X165349979Y-112545285D01*
X164967909Y-112540456D01*
X165097779Y-113406492D01*
X165097779Y-113406492D01*
G37*
X165097779Y-113406492D02*
X164787563Y-113185599D01*
X164552852Y-112992729D01*
X164379715Y-112806219D01*
X164363025Y-112781647D01*
X164221974Y-112634847D01*
X164126603Y-112598588D01*
X164010427Y-112642246D01*
X164060630Y-112767619D01*
X164271910Y-112966309D01*
X164437795Y-113091600D01*
X164871086Y-113402766D01*
X164704398Y-113685807D01*
X164535792Y-113932646D01*
X164371153Y-114119984D01*
X164264050Y-114198255D01*
X164202410Y-114158162D01*
X164156583Y-113967695D01*
X164140632Y-113871114D01*
X164081745Y-113624266D01*
X164010556Y-113483577D01*
X163986173Y-113471107D01*
X163943140Y-113557441D01*
X163945818Y-113783590D01*
X163961098Y-113907367D01*
X163984873Y-114203346D01*
X163945866Y-114337447D01*
X163925601Y-114343626D01*
X163793642Y-114268069D01*
X163622650Y-114083136D01*
X163463119Y-113851437D01*
X163371813Y-113657006D01*
X163284723Y-113481503D01*
X163208774Y-113474277D01*
X163166705Y-113610061D01*
X163181257Y-113863586D01*
X163181985Y-113867937D01*
X163214125Y-114117488D01*
X163188129Y-114224231D01*
X163090791Y-114233978D01*
X163077168Y-114231487D01*
X162918378Y-114133332D01*
X162550565Y-114133332D01*
X162485674Y-114278995D01*
X162301248Y-114347815D01*
X162095315Y-114274317D01*
X161949354Y-114097679D01*
X161887293Y-113887187D01*
X161952866Y-113737698D01*
X161978803Y-113710221D01*
X162105660Y-113621336D01*
X162243814Y-113659257D01*
X162335309Y-113719299D01*
X162503331Y-113913147D01*
X162550565Y-114133332D01*
X162918378Y-114133332D01*
X162910588Y-114128517D01*
X162752042Y-113928261D01*
X162549539Y-113684359D01*
X162317584Y-113514418D01*
X162108018Y-113425470D01*
X161972889Y-113441923D01*
X161873691Y-113517760D01*
X161619297Y-113647920D01*
X161355612Y-113632677D01*
X161193939Y-113520648D01*
X161053686Y-113426986D01*
X160979728Y-113434643D01*
X160945372Y-113538342D01*
X160986958Y-113594631D01*
X161025755Y-113743360D01*
X160932413Y-113960668D01*
X160839705Y-114242963D01*
X160889919Y-114473656D01*
X161054743Y-114610128D01*
X161305868Y-114609758D01*
X161352995Y-114593835D01*
X161444420Y-114534677D01*
X161420299Y-114459024D01*
X161290000Y-114459024D01*
X161233080Y-114522521D01*
X161117129Y-114482957D01*
X161024360Y-114370104D01*
X161021355Y-114361738D01*
X161051643Y-114288744D01*
X161136479Y-114305459D01*
X161269824Y-114404522D01*
X161290000Y-114459024D01*
X161420299Y-114459024D01*
X161413460Y-114437578D01*
X161286416Y-114291339D01*
X161142300Y-114102441D01*
X161142638Y-113975058D01*
X161173434Y-113936680D01*
X161403492Y-113809625D01*
X161619234Y-113860532D01*
X161766453Y-114070708D01*
X161925322Y-114311200D01*
X162162273Y-114450280D01*
X162416529Y-114471216D01*
X162627311Y-114357278D01*
X162659159Y-114316452D01*
X162784980Y-114284163D01*
X162919389Y-114333617D01*
X163160138Y-114429840D01*
X163302519Y-114385416D01*
X163379470Y-114230549D01*
X163446129Y-114020526D01*
X163623135Y-114254786D01*
X163727412Y-114434919D01*
X163704137Y-114559879D01*
X163533082Y-114646970D01*
X163194016Y-114713490D01*
X163066632Y-114730733D01*
X162768626Y-114770287D01*
X162653709Y-114792148D01*
X162712457Y-114801716D01*
X162935446Y-114804393D01*
X162938091Y-114804402D01*
X163250743Y-114794825D01*
X163506548Y-114769091D01*
X163562983Y-114757877D01*
X163867095Y-114626257D01*
X164234382Y-114387878D01*
X164603922Y-114084957D01*
X164774550Y-113918254D01*
X165011475Y-113709791D01*
X165165885Y-113674216D01*
X165246367Y-113813257D01*
X165263324Y-114016679D01*
X165312453Y-114204801D01*
X165422493Y-114354512D01*
X165541462Y-114405098D01*
X165578777Y-114385129D01*
X165583247Y-114273055D01*
X165549265Y-114026642D01*
X165487134Y-113699213D01*
X165407155Y-113344094D01*
X165319630Y-113014609D01*
X165303869Y-112962138D01*
X165315707Y-112818491D01*
X165391825Y-112792481D01*
X165574575Y-112723895D01*
X165631979Y-112671298D01*
X165654210Y-112591506D01*
X165529575Y-112553492D01*
X165349979Y-112545285D01*
X164967909Y-112540456D01*
X165097779Y-113406492D01*
M02*
